0 -1.0 3.0 -1.16 2.78 
0.09 -2.12996577500741 1.459648407605806 -2.2197478531377746 1.3388733613233255 
0.18000000000000002 -2.760666799745352 0.6177382574413555 -2.810160380614873 0.5522899114230071 
0.2700000000000001 -3.102387210597623 0.16562782202611243 -3.128192473804905 0.13111000237830833 
0.36000000000000015 -3.2716840685751443 -0.06819823080035534 -3.2829909977208778 -0.0853411953300819 
0.45000000000000023 -3.3330060761321962 -0.17903131759152907 -3.3348845710139416 -0.186329186121444 
0.5400000000000003 -3.321827339820997 -0.21979194653272838 -3.3170560158925704 -0.22142478367364735 
0.6300000000000003 -3.2575061413498423 -0.21984709597561894 -3.24758884796456 -0.21813286067082402 
0.7200000000000004 -3.150432278637226 -0.1954699385064365 -3.1361631044982765 -0.19169136559735822 
0.8100000000000005 -3.0059996624255114 -0.1556539065251139 -2.987776963723511 -0.15051812969261102 
0.9000000000000006 -2.826814201606677 -0.10534443673999445 -2.8048151217857438 -0.09923846818426159 
0.9900000000000007 -2.613920753234704 -0.047235313244378775 -2.588198195104832 -0.04036804884961928 

0 -1.0 3.0 -1.151160596338932 2.7929798075108505 
0.09 -2.0823709444680847 1.5296593674039383 -2.1701640677024416 1.4118296511466482 
0.18000000000000002 -2.7074743782078254 0.6962117117227591 -2.7575468675868193 0.6299404140625148 
0.2700000000000001 -3.0580889894577474 0.23125904160433944 -3.0851841581430524 0.19486654207748494 
0.36000000000000015 -3.23921724484371 -0.01981177175370888 -3.251794549344296 -0.03881281985715124 
0.45000000000000023 -3.3110360666071568 -0.14604732538463375 -3.313933029817349 -0.1548473417596329 
0.5400000000000003 -3.3078834505435104 -0.198712081511065 -3.303849488588416 -0.2014491368195786 
0.6300000000000003 -3.249198686595063 -0.20729829375391104 -3.239778901650332 -0.2063514792246863 
0.7200000000000004 -3.145826065249121 -0.1887512303851155 -3.1318704739548062 -0.1854859206772556 
0.8100000000000005 -3.0036469171104923 -0.15278490551260968 -2.985603846039438 -0.14798219062897572 
0.9000000000000006 -2.8256721724879843 -0.10494507617166078 -2.803757285104322 -0.09904920469411585 
0.9900000000000007 -2.613247831022438 -0.048374164667455755 -2.5875414898666125 -0.0416351210898335 

0 -1.0 3.0 -1.1554444390504393 2.7866886742074857 
0.09 -2.1056270753730186 1.4954456697762828 -2.1944169359973995 1.3761399529248897 
0.18000000000000002 -2.7337073637406974 0.6575059819265424 -2.783521183314568 0.5916010916172338 
0.2700000000000001 -3.080141530377528 0.19858407138019193 -3.106617216600958 0.1630916281613457 
0.36000000000000015 -3.2555376241853806 -0.04413301076853463 -3.267493815714916 -0.06222561603008443 
0.45000000000000023 -3.322195716557457 -0.16279561989651678 -3.324588449935198 -0.17085187829236903 
0.5400000000000003 -3.315050898953839 -0.20953872889709682 -3.3106478479655177 -0.2117230600196089 
0.6300000000000003 -3.2535323822869264 -0.21383646741207257 -3.2438608969628757 -0.21250160139990246 
0.7200000000000004 -3.148278654797919 -0.19232942686404467 -3.13416257447388 -0.18880203195184744 
0.8100000000000005 -3.004939775039402 -0.15438952207107418 -2.9868033758203563 -0.14941507686269118 
0.9000000000000006 -2.826330190107681 -0.10527116048027943 -2.804370266709529 -0.09926586680923255 
0.9900000000000007 -2.6136474980381874 -0.04789561009982897 -2.587930773173091 -0.04108903874627181 

0 -1.0 3.0 -1.155397765 2.7867569616666668 
0.09 -2.105375118243051 1.4958142688226783 -2.1941543519093236 1.3765240934709573 
0.18000000000000002 -2.733424678973598 0.6579194738815244 -2.7832414315239853 0.5920102852946061 
0.2700000000000001 -3.0799048537167746 0.1989301929124089 -3.1063872709246643 0.16342789667995958 
0.36000000000000015 -3.2553629214617645 -0.0438775952977037 -3.2673257973246246 -0.06197998214543404 
0.45000000000000023 -3.322076465345393 -0.16262133686745403 -3.324474612658832 -0.17068551449766156 
0.5400000000000003 -3.314974596093667 -0.2094272512300347 -3.310575535668051 -0.21161741518869437 
0.6300000000000003 -3.2534869633166013 -0.21377010820765657 -3.2438182644292253 -0.2124393092608687 
0.7200000000000004 -3.1482544705875988 -0.19229403178515417 -3.1341402699991034 -0.18876937318601428 
0.8100000000000005 -3.0049297717799845 -0.1543747326446747 -2.9867946121898044 -0.14940208289144252 
0.9000000000000006 -2.826329479237406 -0.10526978467735357 -2.804370361964021 -0.09926564770095479 
0.9900000000000007 -2.613652811408939 -0.047902824980514354 -2.5879366077070536 -0.04109698868803613 

0 -1.0 3.0 -1.3023211926778637 2.5859596150217015 
0.09 -2.7714548405643056 0.6379061464373547 -2.8761616658060944 0.5067070571243325 
0.18000000000000002 -3.3957660663653195 -0.104008420099747 -3.4336532014321985 -0.1441327321221868 
0.2700000000000001 -3.6201125849708506 -0.32253807664558753 -3.6328663961322456 -0.3329814963471283 
0.36000000000000015 -3.6819048243382753 -0.3687213555168359 -3.6826584786738272 -0.36911821837455916 
0.45000000000000023 -3.6551642546565866 -0.3547185373757353 -3.647892596850794 -0.3513259890415958 
0.5400000000000003 -3.5614609581753784 -0.31616185141800296 -3.547191868163091 -0.31095051409544616 
0.6300000000000003 -3.40543959096342 -0.26415471959121706 -3.384242662954864 -0.25772029136356506 
0.7200000000000004 -3.1861908662332685 -0.2019259248647477 -3.1578135320048144 -0.194421639351959 
0.8100000000000005 -2.9008860123609552 -0.13016281792641712 -2.864956396263127 -0.12159798575496139 
0.9000000000000006 -2.5459326323717186 -0.04871839756998414 -2.502023579666854 -0.039053898935019565 
0.9900000000000007 -2.1173361935702797 0.04284311041361174 -2.0649847776334944 0.05366437660992636 

0 -1.0 3.0 -1.3063333171513176 2.580066022622457 
0.09 -2.78429582777807 0.6189276548094875 -2.8886873079677358 0.488171310808595 
0.18000000000000002 -3.403601938537528 -0.11581408668128924 -3.440880751585148 -0.15506256118345904 
0.2700000000000001 -3.6234507706116448 -0.3278718357109742 -3.6358484177212107 -0.3378034583734138 
0.36000000000000015 -3.682885083646541 -0.37066735704584686 -3.683474414952006 -0.3708275705757468 
0.45000000000000023 -3.655114842670211 -0.35516754631232744 -3.647777698323587 -0.3516767142321644 
0.5400000000000003 -3.561032635300586 -0.3160068196937184 -3.546744195536955 -0.31075769985102175 
0.6300000000000003 -3.4049373247554198 -0.2637756029148809 -3.383743400426712 -0.25732827691910076 
0.7200000000000004 -3.1857712025981684 -0.2014778853675577 -3.1574097690665854 -0.19397086403410507 
0.8100000000000005 -2.900649225809865 -0.1297104062140233 -2.864745163042462 -0.1211472907148203 
0.9000000000000006 -2.545961616805061 -0.04829174717872661 -2.5020870573511425 -0.03863133007009041 
0.9900000000000007 -2.11771215893688 0.04322608456604416 -2.0654044783987797 0.05404159608143848 

